<svg width="16" height="16" viewBox="0 0 16 16" fill="none" xmlns="http://www.w3.org/2000/svg">
<g clip-path="url(#clip0)">
<path d="M0 1.90798e-07L1.90798e-07 16H4V5H7V1.07324e-07L0 1.90798e-07Z" fill="#E6E6E6"/>
<path d="M9 11V16H16V11H9Z" fill="#E6E6E6"/>
<path d="M11 5L9 5V8.34741e-08L16 0V10H11V5Z" fill="#E6E6E6"/>
<path fill-rule="evenodd" clip-rule="evenodd" d="M4 5V13H6V7H11V5L9 5V8.34741e-08L16 0V10H11V8H7V13H9V11H16V16H9V14H4V16H1.90798e-07L0 1.90798e-07L7 1.07324e-07V5H4ZM6 4H3L3 15H1L1 1L6 1V4ZM10 12H15V15H10V12ZM12 4V9H15V0.999999L10 0.999999V4L12 4Z" fill="black"/>
</g>
<defs>
<clipPath id="clip0">
<rect width="16" height="16" transform="matrix(1.19249e-08 1 1 -1.19249e-08 0 0)" fill="white"/>
</clipPath>
</defs>
</svg>
